[
  {
    "name": "CitibanamexD",
    "bank": "citibanamex",
    "image": "banamex.svg",
    "fileType": "txt",
    "delimeter": "",
    "version": "1.0",
    "definition": {
      "H": {
        "lines": [
          {
            "fields": [
              {
                "viewName": "Tipo de Registro",
                "name": "tipoDeRegistro",
                "dataType": "number",
                "length": "1",
                "constant": "1",
                "alignment": "",
                "fill": "",
                "starts": "",
                "format": ""
              },
              {
                "viewName": "Número de cliente",
                "name": "numeroDeCliente",
                "dataType": "number",
                "length": "12",
                "constant": "",
                "alignment": "R",
                "fill": "0",
                "starts": "",
                "format": ""
              },
              {
                "viewName": "Fecha de pago",
                "name": "fechaDePago",
                "dataType": "date",
                "length": "6",
                "constant": "",
                "alignment": "",
                "fill": "",
                "starts": "",
                "format": "YYMMDD"
              },
              {
                "viewName": "Secuencial del archivo",
                "name": "secuencialDelArchivo",
                "dataType": "number",
                "length": "4",
                "constant": "",
                "alignment": "",
                "fill": "",
                "starts": "",
                "format": ""
              },
              {
                "viewName": "Nombre de la empresa",
                "name": "nombreDeLaEmpresa",
                "dataType": "string",
                "length": "36",
                "constant": "Empresa Demo",
                "alignment": "L",
                "fill": " ",
                "starts": "",
                "format": ""
              },
              {
                "viewName": "Descripción del archivo",
                "name": "descripccionDelArchivo",
                "dataType": "string",
                "length": "20",
                "constant": "",
                "alignment": "L",
                "fill": " ",
                "starts": "",
                "format": ""
              },
              {
                "viewName": "Naturaleza del archivo",
                "name": "naturalezaDelArchivo",
                "dataType": "number",
                "length": "2",
                "constant": "15",
                "alignment": "",
                "fill": "",
                "starts": "",
                "format": ""
              },
              {
                "viewName": "Versión del layout",
                "name": "versionDelLayout",
                "dataType": "string",
                "length": "1",
                "constant": "R",
                "alignment": "",
                "fill": "",
                "starts": "",
                "format": ""
              },
              {
                "viewName": "Tipo de Cargo",
                "name": "tipoDeCargo",
                "dataType": "string",
                "length": "02",
                "constant": "01",
                "alignment": "",
                "fill": "",
                "starts": "",
                "format": ""
              }
            ]
          },
          {
            "fields": [
              {
                "viewName": "Tipo de Registro",
                "name": "tipoDeRegistro",
                "dataType": "number",
                "length": "1",
                "constant": "2",
                "alignment": "",
                "fill": "",
                "starts": "",
                "format": ""
              },
              {
                "viewName": "Tipo de operación",
                "name": "tipoDeOperacion",
                "dataType": "number",
                "length": "1",
                "constant": "1",
                "alignment": "",
                "fill": "",
                "starts": "",
                "format": ""
              },
              {
                "viewName": "Clave de la moneda",
                "name": "moneda",
                "dataType": "string",
                "length": "3",
                "constant": "001",
                "alignment": "",
                "fill": "",
                "starts": "",
                "format": ""
              },
              {
                "viewName": "Importe a cargar",
                "name": "importe",
                "dataType": "number",
                "length": "18",
                "constant": "",
                "alignment": "R",
                "fill": "0",
                "starts": "",
                "format": "",
                "function": {
                  "nombre": "sumaImporte",
                  "args": [
                    "importe"
                  ]
                }
              },
              {
                "viewName": "Tipo de cuenta",
                "name": "tipoDeCuenta",
                "dataType": "number",
                "length": "2",
                "constant": "01",
                "alignment": "",
                "fill": "",
                "starts": "",
                "format": ""
              },
              {
                "viewName": "Número de cuenta",
                "name": "numeroDeCuenta",
                "dataType": "number",
                "length": "20",
                "constant": "",
                "alignment": "R",
                "fill": "0",
                "starts": "",
                "format": ""
              },
              {
                "viewName": "Número total de Abonos",
                "name": "numeroTotalDeAbonos",
                "dataType": "number",
                "length": "6",
                "constant": "",
                "alignment": "R",
                "fill": "0",
                "starts": "",
                "format": "",
                "function": {
                  "nombre": "sumaAbonos",
                  "args": [
                    "importe"
                  ]
                }
              }
            ]
          }
        ]
      },
      "B": {
        "lines": [
          {
            "fields": [
              {
                "viewName": "Tipo de Registro",
                "name": "tipoDeRegistro",
                "dataType": "number",
                "length": "1",
                "constant": "3",
                "alignment": "",
                "fill": "",
                "starts": "",
                "format": ""
              },
              {
                "viewName": "Tipo de operación",
                "name": "tipoDeOperacion",
                "dataType": "number",
                "length": "1",
                "constant": "0",
                "alignment": "",
                "fill": "",
                "starts": "",
                "format": ""
              },
              {
                "viewName": "Método de Pago",
                "name": "metodoDePago",
                "dataType": "number",
                "length": "3",
                "constant": "002",
                "alignment": "",
                "fill": "",
                "starts": "",
                "format": ""
              },
              {
                "viewName": "Tipo de Pago",
                "name": "tipoDePago",
                "dataType": "number",
                "length": "2",
                "constant": "01",
                "alignment": "",
                "fill": "",
                "starts": "",
                "format": ""
              },
              {
                "viewName": "Clave de la Moneda",
                "name": "moneda",
                "dataType": "number",
                "length": "3",
                "constant": "001",
                "alignment": "",
                "fill": "",
                "starts": "",
                "format": ""
              },
              {
                "viewName": "Importe",
                "name": "importe",
                "dataType": "number",
                "length": 18,
                "constant": "",
                "alignment": "R",
                "fill": "0",
                "starts": "",
                "format": ""
              },
              {
                "viewName": "Tipo de cuenta abono",
                "name": "tipoDeCuentaAbono",
                "dataType": "number",
                "length": "2",
                "constant": "",
                "alignment": "",
                "fill": "",
                "starts": "",
                "format": ""
              },
              {
                "viewName": "Número de cuenta abono",
                "name": "numeroDeCuentaAbono",
                "dataType": "number",
                "length": "20",
                "constant": "",
                "alignment": "R",
                "fill": "0",
                "starts": "",
                "format": ""
              },
              {
                "viewName": "Referencia del pago",
                "name": "referencia",
                "dataType": "string",
                "length": "16",
                "constant": "REF123",
                "alignment": "L",
                "fill": " ",
                "starts": "",
                "format": ""
              },
              {
                "viewName": "Beneficiario",
                "name": "beneficiario",
                "dataType": "string",
                "length": "55",
                "constant": "",
                "alignment": "L",
                "fill": " ",
                "starts": "",
                "format": ""
              },
              {
                "viewName": "Referencia 1",
                "name": "referencia1",
                "dataType": "string",
                "length": "35",
                "constant": " ",
                "alignment": "",
                "fill": " ",
                "starts": "",
                "format": ""
              },
              {
                "viewName": "Referencia 2",
                "name": "referencia2",
                "dataType": "string",
                "length": "35",
                "constant": " ",
                "alignment": "",
                "fill": " ",
                "starts": "",
                "format": ""
              },
              {
                "viewName": "Referencia 3",
                "name": "referencia3",
                "dataType": "string",
                "length": "35",
                "constant": " ",
                "alignment": "",
                "fill": " ",
                "starts": "",
                "format": ""
              },
              {
                "viewName": "Referencia 4",
                "name": "referencia4",
                "dataType": "string",
                "length": "35",
                "constant": " ",
                "alignment": "",
                "fill": " ",
                "starts": "",
                "format": ""
              },
              {
                "viewName": "Clave de banco",
                "name": "claveDeBanco",
                "dataType": "number",
                "length": "4",
                "constant": "",
                "alignment": "R",
                "fill": "0",
                "starts": "",
                "format": ""
              },
              {
                "viewName": "Plazo",
                "name": "plazo",
                "dataType": "number",
                "length": "2",
                "constant": "00",
                "alignment": "",
                "fill": "",
                "starts": "",
                "format": ""
              },
              {
                "viewName": "RFC",
                "name": "rfc",
                "dataType": "string",
                "length": "14",
                "constant": "",
                "alignment": "",
                "fill": " ",
                "starts": "",
                "format": ""
              },
              {
                "viewName": "IVA",
                "name": "iva",
                "dataType": "number",
                "length": "8",
                "constant": "",
                "alignment": "",
                "fill": " ",
                "starts": "",
                "format": ""
              },
              {
                "viewName": "Uso Futuro 1",
                "name": "usoFuturo1",
                "dataType": "number",
                "length": "80",
                "constant": "",
                "alignment": "",
                "fill": " ",
                "starts": "",
                "format": ""
              },
              {
                "viewName": "Uso Futuro 2",
                "name": "usoFuturo2",
                "dataType": "number",
                "length": "50",
                "constant": "",
                "alignment": "",
                "fill": " ",
                "starts": "",
                "format": ""
              }
            ]
          }
        ]
      },
      "F": {
        "lines": [
          {
            "fields": [
              {
                "viewName": "Tipo de Registro",
                "name": "tipoDeRegistro",
                "dataType": "number",
                "length": "1",
                "constant": "4",
                "alignment": "",
                "fill": "",
                "starts": "",
                "format": ""
              },
              {
                "viewName": "Clave de la moneda",
                "name": "moneda",
                "dataType": "number",
                "length": "3",
                "constant": "001",
                "alignment": "",
                "fill": "",
                "starts": "",
                "format": ""
              },
              {
                "viewName": "Número de abonos",
                "name": "numeroDeAbonos",
                "dataType": "number",
                "length": "6",
                "constant": "",
                "alignment": "R",
                "fill": "0",
                "starts": "",
                "format": "",
                "function": {
                  "nombre": "sumaAbonos",
                  "args": [
                    "importe"
                  ]
                }
              },
              {
                "viewName": "Importe total de abonos",
                "name": "importeTotalDeAbonos",
                "dataType": "number",
                "length": "18",
                "constant": "",
                "alignment": "R",
                "fill": "0",
                "starts": "",
                "format": "",
                "function": {
                  "nombre": "sumaImporte",
                  "args": [
                    "importe"
                  ]
                }
              },
              {
                "viewName": "Número de cargos",
                "name": "numeroDeCargos",
                "dataType": "number",
                "length": "6",
                "constant": "000001",
                "alignment": "",
                "fill": "",
                "starts": "",
                "format": ""
              },
              {
                "viewName": "Importe total de cargos",
                "name": "importeTotalDeCargos",
                "dataType": "number",
                "length": "18",
                "constant": "",
                "alignment": "R",
                "fill": "0",
                "starts": "",
                "format": "",
                "function": {
                  "nombre": "sumaImporte",
                  "args": [
                    "importe"
                  ]
                }
              }
            ]
          }
        ]
      }
    }
  },
  {
    "name": "CitiConnectXML",
    "bank": "citibanamex",
    "image": "citibanamex.svg",
    "fileType": "xml",
    "delimeter": "",
    "version": "1.0",
    "definition": {
      "H": {
        "lines": [
          {
            "fields": [
              {
                "viewName": "Tipo de registro",
                "name": "tipoDeRegistro",
                "path": "",
                "type": "number",
                "length": "1",
                "constant": "1",
                "alignment": "",
                "fill": "",
                "starts": "",
                "format": "",
                "subtype": ""
              },
              {
                "viewName": "Numero de cliente",
                "name": "numeroDeCliente",
                "path": "",
                "type": "number",
                "length": "12",
                "constant": "",
                "alignment": "R",
                "fill": "0",
                "starts": "",
                "format": "",
                "subtype": ""
              },
              {
                "viewName": "Fecha de pago",
                "name": "fechaDePago",
                "path": "Document.CstmrCdtTrfInitn.PmtInf.ReqdExctnDt",
                "type": "date",
                "length": "6",
                "constant": "",
                "alignment": "",
                "fill": "",
                "starts": "",
                "format": "YYMMDD",
                "subtype": ""
              },
              {
                "viewName": "Secuencial del archivo",
                "name": "secuencialDelArchivo",
                "path": "",
                "type": "number",
                "length": "4",
                "constant": "",
                "alignment": "",
                "fill": "",
                "starts": "",
                "format": "",
                "subtype": ""
              },
              {
                "viewName": "Nombre de la empresa",
                "name": "nombreDeLaEmpresa",
                "path": "Document.CstmrCdtTrfInitn.PmtInf.Dbtr.Nm",
                "type": "string",
                "length": "36",
                "constant": "",
                "alignment": "L",
                "fill": " ",
                "starts": "",
                "format": "",
                "subtype": ""
              },
              {
                "viewName": "Descripcion del archivo",
                "name": "descripcionDelArchivo",
                "path": "Document.CstmrCdtTrfInitn.PmtInf.PmtInfId",
                "type": "string",
                "length": "20",
                "constant": "",
                "alignment": "L",
                "fill": " ",
                "starts": "",
                "format": "",
                "subtype": ""
              },
              {
                "viewName": "Naturaleza del archivo",
                "name": "naturalezaDelArchivo",
                "path": "",
                "type": "number",
                "length": "2",
                "constant": "15",
                "alignment": "",
                "fill": "",
                "starts": "",
                "format": "",
                "subtype": ""
              },
              {
                "viewName": "Version del layout",
                "name": "versionDelLayout",
                "path": "",
                "type": "string",
                "length": "1",
                "constant": "R",
                "alignment": "",
                "fill": "",
                "starts": "",
                "format": "",
                "subtype": ""
              },
              {
                "viewName": "Tipo de cargo",
                "name": "tipoDeCargo",
                "path": "",
                "type": "number",
                "length": "2",
                "constant": "01",
                "alignment": "",
                "fill": "",
                "starts": "",
                "format": "",
                "subtype": ""
              }
            ]
          },
          {
            "fields": [
              {
                "viewName": "Tipo de registro",
                "name": "tipoDeRegistro",
                "path": "",
                "type": "number",
                "length": "1",
                "constant": "2",
                "alignment": "",
                "fill": "",
                "starts": "",
                "format": "",
                "subtype": ""
              },
              {
                "viewName": "Tipo de operacion",
                "name": "tipoDeOperacion",
                "path": "",
                "type": "number",
                "length": "1",
                "constant": "1",
                "alignment": "",
                "fill": "",
                "starts": "",
                "format": "",
                "subtype": ""
              },
              {
                "viewName": "Moneda",
                "name": "moneda",
                "path": "",
                "type": "number",
                "length": "3",
                "constant": "001",
                "alignment": "",
                "fill": "",
                "starts": "",
                "format": "",
                "subtype": ""
              },
              {
                "viewName": "Importe a cargar",
                "name": "importeACargar",
                "path": "Document.CstmrCdtTrfInitn.GrpHdr.CtrlSum",
                "type": "number",
                "length": "18",
                "constant": "",
                "alignment": "R",
                "fill": "0",
                "starts": "",
                "format": "",
                "subtype": ""
              },
              {
                "viewName": "Tipo de cuenta",
                "name": "tipoDeCuenta",
                "path": "",
                "type": "number",
                "length": "2",
                "constant": "01",
                "alignment": "",
                "fill": "",
                "starts": "",
                "format": "",
                "subtype": ""
              },
              {
                "viewName": "Numero de cuenta",
                "name": "numeroDeCuenta",
                "path": "Document.CstmrCdtTrfInitn.PmtInf.DbtrAcct.Id.Othr.Id",
                "type": "number",
                "length": "20",
                "constant": "",
                "alignment": "R",
                "fill": "0",
                "starts": "",
                "format": "",
                "subtype": ""
              },
              {
                "viewName": "Numero total de abonos",
                "name": "numeroTotalDeAbonos",
                "path": "Document.CstmrCdtTrfInitn.GrpHdr.NbOfTxs",
                "type": "number",
                "length": "6",
                "constant": "",
                "alignment": "R",
                "fill": "0",
                "starts": "",
                "format": "",
                "subtype": ""
              }
            ]
          }
        ]
      },
      "B": {
        "lines": [
          {
            "fields": [
              {
                "viewName": "Tipo de registro",
                "name": "tipoDeRegistro",
                "path": "",
                "type": "number",
                "length": "1",
                "constant": "3",
                "alignment": "",
                "fill": "",
                "starts": "",
                "format": "",
                "subtype": ""
              },
              {
                "viewName": "Tipo de operacion",
                "name": "tipoDeOperacion",
                "path": "",
                "type": "number",
                "length": "1",
                "constant": "0",
                "alignment": "",
                "fill": "",
                "starts": "",
                "format": "",
                "subtype": ""
              },
              {
                "viewName": "Metodo de pago",
                "name": "metodoDePago",
                "path": "Document.CstmrCdtTrfInitn.PmtInf.PmtTpInf.LclInstrm.Prtry",
                "type": "number",
                "length": "3",
                "constant": "002",
                "alignment": "",
                "fill": "",
                "starts": "",
                "format": "",
                "subtype": ""
              },
              {
                "viewName": "Tipo de pago",
                "name": "tipoDePago",
                "path": "",
                "type": "number",
                "length": "2",
                "constant": "01",
                "alignment": "",
                "fill": "",
                "starts": "",
                "format": "",
                "subtype": ""
              },
              {
                "viewName": "Moneda",
                "name": "moneda",
                "path": "",
                "type": "number",
                "length": "3",
                "constant": "001",
                "alignment": "",
                "fill": "",
                "starts": "",
                "format": "",
                "subtype": ""
              },
              {
                "viewName": "Importe",
                "name": "importe",
                "path": "Document.CstmrCdtTrfInitn.PmtInf.CdtTrfTxInf.Amt.InstdAmt",
                "type": "number",
                "length": 18,
                "constant": "",
                "alignment": "R",
                "fill": "0",
                "starts": "",
                "format": "",
                "subtype": ""
              },
              {
                "viewName": "Tipo de cuenta abono",
                "name": "tipoDeCuentaAbono",
                "path": "Document.CstmrCdtTrfInitn.PmtInf.CdtTrfTxInf.CdtrAcct.Tp.Prtry",
                "type": "number",
                "length": "2",
                "constant": "",
                "alignment": "",
                "fill": "",
                "starts": "",
                "format": "",
                "subtype": ""
              },
              {
                "viewName": "Numero de cuenta abono",
                "name": "numeroDeCuentaAbono",
                "path": "Document.CstmrCdtTrfInitn.PmtInf.DbtrAcct.Id.Othr.Id",
                "type": "number",
                "length": "20",
                "constant": "",
                "alignment": "R",
                "fill": "0",
                "starts": "",
                "format": "",
                "subtype": ""
              },
              {
                "viewName": "Referencia del pago",
                "name": "referenciaDelPago",
                "path": "Document.CstmrCdtTrfInitn.PmtInf.CdtTrfTxInf.RmtInf.Ustrd[0]",
                "type": "string",
                "length": "16",
                "constant": "REF123",
                "alignment": "L",
                "fill": " ",
                "starts": "",
                "format": "",
                "subtype": ""
              },
              {
                "viewName": "Beneficiario",
                "name": "beneficiario",
                "path": "Document.CstmrCdtTrfInitn.PmtInf.CdtTrfTxInf.Cdtr.Nm",
                "type": "string",
                "length": "55",
                "constant": "",
                "alignment": "L",
                "fill": " ",
                "starts": "",
                "format": "",
                "subtype": ""
              },
              {
                "viewName": "Referencia 1",
                "name": "referencia1",
                "path": "Document.CstmrCdtTrfInitn.PmtInf.CdtTrfTxInf.RmtInf.Ustrd[1]",
                "type": "string",
                "length": "35",
                "constant": " ",
                "alignment": "",
                "fill": " ",
                "starts": "",
                "format": "",
                "subtype": ""
              },
              {
                "viewName": "Referencia 2",
                "name": "referencia2",
                "path": "",
                "type": "string",
                "length": "35",
                "constant": " ",
                "alignment": "",
                "fill": " ",
                "starts": "",
                "format": "",
                "subtype": ""
              },
              {
                "viewName": "Referencia 3",
                "name": "referencia3",
                "path": "",
                "type": "string",
                "length": "35",
                "constant": " ",
                "alignment": "",
                "fill": " ",
                "starts": "",
                "format": "",
                "subtype": ""
              },
              {
                "viewName": "Referencia 4",
                "name": "referencia4",
                "path": "Document.CstmrCdtTrfInitn.PmtInf.CdtTrfTxInf.PmtId.EndToEndId",
                "type": "string",
                "length": "35",
                "constant": " ",
                "alignment": "",
                "fill": " ",
                "starts": "",
                "format": "",
                "subtype": ""
              },
              {
                "viewName": "Clave del banco",
                "name": "claveDelBanco",
                "path": "",
                "type": "number",
                "length": "4",
                "constant": "",
                "alignment": "R",
                "fill": "0",
                "starts": "",
                "format": "",
                "subtype": ""
              },
              {
                "viewName": "Plazo",
                "name": "plazo",
                "path": "",
                "type": "number",
                "length": "2",
                "constant": "00",
                "alignment": "",
                "fill": "",
                "starts": "",
                "format": "",
                "subtype": ""
              },
              {
                "viewName": "RFC",
                "name": "rfc",
                "path": "",
                "type": "string",
                "length": "14",
                "constant": "",
                "alignment": "",
                "fill": " ",
                "starts": "",
                "format": "",
                "subtype": ""
              },
              {
                "viewName": "Iva",
                "name": "iva",
                "path": "",
                "type": "number",
                "length": "8",
                "constant": "",
                "alignment": "",
                "fill": " ",
                "starts": "",
                "format": "",
                "subtype": ""
              },
              {
                "viewName": "Uso futuro 1",
                "name": "usoFuturo1",
                "path": "",
                "type": "number",
                "length": "80",
                "constant": "",
                "alignment": "",
                "fill": " ",
                "starts": "",
                "format": "",
                "subtype": ""
              },
              {
                "viewName": "Uso futuro 2",
                "name": "usoFuturo2",
                "path": "",
                "type": "number",
                "length": "50",
                "constant": "",
                "alignment": "",
                "fill": " ",
                "starts": "",
                "format": "",
                "subtype": ""
              }
            ]
          }
        ]
      },
      "F": {
        "lines": [
          {
            "fields": [
              {
                "viewName": "Tipo de registro",
                "name": "tipoDeRegistro",
                "path": "",
                "type": "number",
                "length": "1",
                "constant": "4",
                "alignment": "",
                "fill": "",
                "starts": "",
                "format": "",
                "subtype": ""
              },
              {
                "viewName": "Moneda",
                "name": "moneda",
                "path": "",
                "type": "number",
                "length": "3",
                "constant": "001",
                "alignment": "",
                "fill": "",
                "starts": "",
                "format": "",
                "subtype": ""
              },
              {
                "viewName": "Numero de abonos",
                "name": "numeroDeAbonos",
                "path": "Document.CstmrCdtTrfInitn.GrpHdr.CtrlSum",
                "type": "number",
                "length": "6",
                "constant": "",
                "alignment": "R",
                "fill": "0",
                "starts": "",
                "format": "",
                "subtype": ""
              },
              {
                "viewName": "Importe total de abonos",
                "name": "importeTotalDeAbonos",
                "path": "Document.CstmrCdtTrfInitn.GrpHdr.NbOfTxs",
                "type": "number",
                "length": "18",
                "constant": "",
                "alignment": "R",
                "fill": "0",
                "starts": "",
                "format": "",
                "subtype": ""
              },
              {
                "viewName": "Numero de cargos",
                "name": "numeroDeCargos",
                "path": "",
                "type": "number",
                "length": "6",
                "constant": "000001",
                "alignment": "",
                "fill": "",
                "starts": "",
                "format": "",
                "subtype": ""
              },
              {
                "viewName": "Importe total de cargos",
                "name": "importeTotalDeCargos",
                "path": "Document.CstmrCdtTrfInitn.GrpHdr.CtrlSum",
                "type": "number",
                "length": "18",
                "constant": "",
                "alignment": "R",
                "fill": "0",
                "starts": "",
                "format": "",
                "subtype": ""
              }
            ]
          }
        ]
      }
    }
  }
]